module gorm

go 1.20

require (
	github.com/KyleBanks/depth v1.2.1 // indirect
	github.com/PuerkitoBio/purell v1.2.0 // indirect
	github.com/PuerkitoBio/urlesc v0.0.0-20170810143723-de5bf2ad4578 // indirect
	github.com/andybalholm/brotli v1.0.5 // indirect
	github.com/cpuguy83/go-md2man/v2 v2.0.2 // indirect
	github.com/fsnotify/fsnotify v1.6.0 // indirect
	github.com/go-openapi/jsonpointer v0.19.6 // indirect
	github.com/go-openapi/jsonreference v0.20.2 // indirect
	github.com/go-openapi/spec v0.20.9 // indirect
	github.com/go-openapi/swag v0.22.3 // indirect
	github.com/go-sql-driver/mysql v1.7.0 // indirect
	github.com/gofiber/fiber/v2 v2.44.0 // indirect
	github.com/google/uuid v1.3.0 // indirect
	github.com/hashicorp/hcl v1.0.0 // indirect
	github.com/jinzhu/inflection v1.0.0 // indirect
	github.com/jinzhu/now v1.1.5 // indirect
	github.com/josharian/intern v1.0.0 // indirect
	github.com/klauspost/compress v1.16.3 // indirect
	github.com/magiconair/properties v1.8.7 // indirect
	github.com/mailru/easyjson v0.7.7 // indirect
	github.com/mattn/go-colorable v0.1.13 // indirect
	github.com/mattn/go-isatty v0.0.18 // indirect
	github.com/mattn/go-runewidth v0.0.14 // indirect
	github.com/mitchellh/mapstructure v1.5.0 // indirect
	github.com/pelletier/go-toml/v2 v2.0.6 // indirect
	github.com/philhofer/fwd v1.1.2 // indirect
	github.com/rivo/uniseg v0.2.0 // indirect
	github.com/russross/blackfriday/v2 v2.1.0 // indirect
	github.com/savsgio/dictpool v0.0.0-20221023140959-7bf2e61cea94 // indirect
	github.com/savsgio/gotils v0.0.0-20230208104028-c358bd845dee // indirect
	github.com/shurcooL/sanitized_anchor_name v1.0.0 // indirect
	github.com/spf13/afero v1.9.3 // indirect
	github.com/spf13/cast v1.5.0 // indirect
	github.com/spf13/jwalterweatherman v1.1.0 // indirect
	github.com/spf13/pflag v1.0.5 // indirect
	github.com/spf13/viper v1.15.0 // indirect
	github.com/subosito/gotenv v1.4.2 // indirect
	github.com/swaggo/swag v1.16.1 // indirect
	github.com/tinylib/msgp v1.1.8 // indirect
	github.com/urfave/cli/v2 v2.25.1 // indirect
	github.com/valyala/bytebufferpool v1.0.0 // indirect
	github.com/valyala/fasthttp v1.45.0 // indirect
	github.com/valyala/tcplisten v1.0.0 // indirect
	github.com/xrash/smetrics v0.0.0-20201216005158-039620a65673 // indirect
	go.uber.org/atomic v1.9.0 // indirect
	go.uber.org/multierr v1.8.0 // indirect
	go.uber.org/zap v1.24.0 // indirect
	golang.org/x/net v0.9.0 // indirect
	golang.org/x/sys v0.7.0 // indirect
	golang.org/x/text v0.9.0 // indirect
	golang.org/x/tools v0.8.0 // indirect
	gopkg.in/ini.v1 v1.67.0 // indirect
	gopkg.in/yaml.v2 v2.4.0 // indirect
	gopkg.in/yaml.v3 v3.0.1 // indirect
	gorm.io/driver/mysql v1.5.0 // indirect
	gorm.io/gorm v1.25.0 // indirect
	sigs.k8s.io/yaml v1.3.0 // indirect
)
